{
    "add_repo": {
        "intro": "Scanați codurile QR de pe dispozitivele sau de pe site-urile web pe care doriți să le adăugați.",
        "no_internet": "Nu ai internet? Nici o problemă. Aflați <a href=\"../swap/\">Cum să trimiteți și să primiți aplicații offline.</a>",
        "open_repo_link": {
            "description": "Dacă vi se trimite un link repo prin e-mail, rețele sociale sau SMS, adăugați posibilitatea de a instala aplicațiile din acesta în F-Droid prin accesarea linkului.",
            "short_summary": "Accesați linkul Repo",
            "steps": {
                "step_1": "Descărcați și instalați aplicația F-Droid pe dispozitivul dvs. Android.",
                "step_2": "Faceți clic pe link și deschideți-l într-un browser web de pe dispozitivul dvs.",
                "step_3": "După ce ați deschis linkul, atingeți butonul \"Adăugați la F-Droid\".",
                "step_4": "Atingeți butonul \"Am F-Droid\". Aplicația F-Droid se va deschide.",
                "step_5": "Se afișează \"Adăugare depozit nou\" cu adresa depozitului pentru acesta precompletată. Apăsați \"OK\" pentru a-l adăuga.",
                "step_6": "Noul dvs. repo va fi adăugat. Pentru a vedea o listă a depozitelor dvs., deschideți \"Setări\". Selectați \"Depozite\".",
                "step_7": "Apăsați pe un repo pentru a vedea conținutul acestuia.",
                "step_8": "Selectați aplicațiile pe care doriți să le aveți și instalați-le pe dispozitiv."
            },
            "title": "Accesați linkul Repo de pe dispozitiv"
        }
    }
}
