{
    "add_repo": {
        "intro": "Pindai kode QR untuk repo yang ingin Anda tambahkan dari perangkat atau situs web di mana repo tersebut ditemukan.",
        "no_internet": "Tidak ada internet? Tidak masalah. Pelajari <a href=\"../swap/\">Cara untuk Mengirim dan Menerima Aplikasi Offline.</a>",
        "open_repo_link": {
            "short_summary": "Buka Link Repo",
            "steps": {
                "step_1": "Download dan instal aplikasi F-Droid pada perangkat Android Anda.",
                "step_2": "Klik pada link tersebut dan buka di browser pada perangkat Anda.",
                "step_3": "Saat link telah terbuka, ketuk tombol 'Tambahkan ke F-Droid'.",
                "step_4": "Ketuk tombol 'Saya memiliki F-Droid'. Aplikasi F-Droid akan terbuka.",
                "step_5": "Jendela 'Tambahkan repositori baru' akan muncul dengan terisi alamat repositori tersebut. Ketuk 'Oke' untuk menambahnya.",
                "step_6": "Repo baru Anda akan ditambahkan. Untuk melihat daftar repo Anda, buka 'Setelan'. Pilih 'Repositori'.",
                "step_7": "Ketuk repo untuk melihat isinya.",
                "step_8": "Pilih aplikasi yang ingin Anda miliki dan menginstalnya di perangkat Anda."
            },
            "title": "Buka Link Repo di Perangkat Anda"
        },
        "overview": {
            "summary": "Untuk mendapatkan lebih banyak, tambahkan repo ke F-Droid. Repo adalah kumpulan konten yang dikurasi. Anda dapat mengetahui tentang repo orang darinya secara langsung. Pengembang sering memberikan link ke repo F-Droid nya dari situs web mereka. Pelatih sering membagikan link ke repo melalui email, Facebook atau Twitter.",
            "title": "Dapatkan lebih banyak konten."
        },
        "scan_qr_code": {
            "related_tutorial": "Anda mungkin juga tertarik pada: <a href=\"../swap/\">Cara Mengirim dan Menerima Aplikasi Luring</a>",
            "short_summary": "Pindai Kode QR",
            "steps": {
                "step_3": "Jika Anda tidak mendapatkan opsi untuk membuka tautan dengan F-Droid, tutup aplikasi pemindai kode QR dan buka aplikasi F-Droid.",
                "step_4": "Di dalam F-Droid, tekan 'Pengaturan.' Dibawah 'Aplikasi Saya' tekan ' Repositori'.",
                "step_5": "Dalam layar Repositori, tekan ikon '+' di sudut atas."
            }
        },
        "title": "Bagaimana Menambahkan Repo ke F-Droid"
    },
    "create_repo": {
        "customize_repo": {
            "steps": {
                "step_2": "Klik 'Edit'."
            }
        }
    }
}
